<?xml version="1.0" encoding="UTF-8"?>
<svg width="26px" height="22px" viewBox="0 0 26 22" version="1.1" xmlns="http://www.w3.org/2000/svg" xmlns:xlink="http://www.w3.org/1999/xlink">
    <title>shopping-cart</title>
    <g id="Flujo" stroke="none" stroke-width="1" fill="none" fill-rule="evenodd">
        <g id="Categorías" transform="translate(-327.000000, -36.000000)" fill="#FFFFFF" fill-rule="nonzero">
            <g id="shopping-cart" transform="translate(327.000000, 36.000000)">
                <path d="M8.37693667,14.4446325 L8.37812683,14.4446325 C8.37911864,14.4446325 8.3801105,14.4444444 8.38110231,14.4444444 L22.1914434,14.4444444 C22.5314403,14.4444444 22.8303758,14.230599 22.9238055,13.9206453 L25.9706856,3.80953416 C26.0363443,3.59155093 25.9903237,3.35720484 25.8465093,3.17627315 C25.7024967,2.99534146 25.4773529,2.88888889 25.2383235,2.88888889 L6.62021986,2.88888889 L6.07570902,0.565552674 C5.9981485,0.235098356 5.68909645,0 5.33204018,0 L0.761720026,0 C0.340988743,0 0,0.323307304 0,0.722222222 C0,1.12113714 0.340988743,1.44444444 0.761720026,1.44444444 L4.72107725,1.44444444 C4.81748246,1.85614871 7.3267945,12.562717 7.47120392,13.1786748 C6.66167804,13.5123264 6.09376021,14.2776186 6.09376021,15.1666667 C6.09376021,16.3613426 7.11890841,17.3333333 8.37892029,17.3333333 L22.1914434,17.3333333 C22.6121747,17.3333333 22.9531635,17.010026 22.9531635,16.6111111 C22.9531635,16.2121962 22.6121747,15.8888889 22.1914434,15.8888889 L8.37892029,15.8888889 C7.95898246,15.8888889 7.61720026,15.5648293 7.61720026,15.1666667 C7.61720026,14.7690683 7.95779225,14.4455729 8.37693667,14.4446325 L8.37693667,14.4446325 Z M24.2284494,4.33333333 L21.6167812,13 L8.98988323,13 L6.95862982,4.33333333 L24.2284494,4.33333333 Z" id="Shape"></path>
                <path d="M7.52631579,19.6666667 C7.52631579,20.9532407 8.60062135,22 9.92105263,22 C11.2414839,22 12.3157895,20.9532407 12.3157895,19.6666667 C12.3157895,18.3800926 11.2414839,17.3333333 9.92105263,17.3333333 C8.60062135,17.3333333 7.52631579,18.3800926 7.52631579,19.6666667 Z M9.92105263,18.8888889 C10.3611271,18.8888889 10.7192982,19.2378762 10.7192982,19.6666667 C10.7192982,20.0954572 10.3611271,20.4444444 9.92105263,20.4444444 C9.48097817,20.4444444 9.12280702,20.0954572 9.12280702,19.6666667 C9.12280702,19.2378762 9.48097817,18.8888889 9.92105263,18.8888889 Z" id="Shape"></path>
                <path d="M18.4736842,19.6666667 C18.4736842,20.9532407 19.5479898,22 20.8684211,22 C22.1888523,22 23.2631579,20.9532407 23.2631579,19.6666667 C23.2631579,18.3800926 22.1888523,17.3333333 20.8684211,17.3333333 C19.5479898,17.3333333 18.4736842,18.3800926 18.4736842,19.6666667 Z M20.8684211,18.8888889 C21.3084955,18.8888889 21.6666667,19.2378762 21.6666667,19.6666667 C21.6666667,20.0954572 21.3084955,20.4444444 20.8684211,20.4444444 C20.4283466,20.4444444 20.0701754,20.0954572 20.0701754,19.6666667 C20.0701754,19.2378762 20.4283466,18.8888889 20.8684211,18.8888889 Z" id="Shape"></path>
            </g>
        </g>
    </g>
</svg>